kpi,ds_category,SPL
Count of application error events,Application Error,tag=myapp:application_error | timechart count
Count of generic error events,Application Error,tag=myapp:application_error tag=myapp:generic_error | timechart count
Count of noise events,Application Error,tag=myapp:application_error tag=myapp:noise | timechart count
Count of incident events,Application Error,tag=myapp:application_error tag=myapp:incident | timechart count
Count of known events,Application Error,tag=myapp:application_error tag=myapp:known | timechart count
Count of expected error events,Application Error,tag=myapp:application_error tag=myapp:expected | timechart count
Count of unknown error events,Application Error,tag=myapp:application_error NOT (tag=myapp:noise OR myapp:incident OR myapp:known OR myapp:expected) | timechart count
Count of logins,Application Usage,tag=myapp:application_usage tag=myapp:login | timechart count
Count of logouts,Application Usage,tag=myapp:application_usage tag=myapp:logout | timechart count
Count of application usage events,Application Usage,tag=myapp:application_usage | timechart count
95th percentile of base application performance,Application Metrics,tag=myapp:application_metrics <custom spl here> | timechart perc95(response_time)
95th percentile of critical workflow performance,Application Metrics,tag=myapp:application_metrics <custom spl here> | timechart perc95(response_time)
Count of application tickets,Application Ticketing,tag=myapp:application_ticketing | timechart count by severity